1.01294254531
0.691924185529
0.508943306945
0.537829100835
0.441406709341
0.713707990615
0.916917360047
0.522522804691
0.510839661065
0.65544159103
0.648002212525
0.752538617804
0.619495338432
0.565516114162
0.325573765916
0.468528858425
0.695384273445
0.559585826211
0.668633084619
0.589327654481
0.669257487577
0.552013016655
0.565260469106
0.584469001677
0.557107476237
0.736716948143
0.566751721638
0.680703724752
0.44055745262
0.830000166182
0.825700599132
0.769525836775
0.577617871333
0.369534149554
0.828815385352
0.536116374408
0.382970432831
0.700669745835
0.556296862553
0.511391395042
0.803701958031
0.743865157828
0.364232708738
0.332528628829
0.53344446353
0.531613048213
0.543276327138
0.406394085473
0.513877778402
0.671509287862
0.619063866409
0.769068306007
0.737287965314
0.542093225744
0.544200145643
0.322789491625
0.860605878088
0.640831377541
0.298250096911
0.4505977079
0.648099581511
0.773587820706
0.377958553831
0.580747383233
0.959319928694
0.395099087832
0.760967173042
0.605981987495
0.589750205283
0.762002044528
0.683633340332
0.648576505732
0.323220412817
0.645384125022
0.690429493085
0.734294643011
0.345820753957
0.813705768291
0.510838509521
0.498383205948
0.671308330283
1.1119358109
0.805236060841
0.602232593139
0.653795464222
0.439344997482
0.352196549146
0.699808353329
0.950149632371
0.518874169765
0.609238986602
0.605689892909
0.76517355229
0.350695437542
0.519662422686
0.417430283643
0.351314911508
0.429715475093
0.438744540685
0.61989831748
